{
  "type": "service_account",
  "project_id": "fir-vuechat5",
  "private_key_id": "c7111b8cf5feae3397f7609ec4c51478124cd284",
  "private_key": "-----BEGIN PRIVATE KEY-----\nMIIEvQIBADANBgkqhkiG9w0BAQEFAASCBKcwggSjAgEAAoIBAQCmdUk+Gg7h87NF\n6Vq7dyfQpLGv7RngN9MG7+Zn4+sVOgz9SiKNopa2m+osCP6u69gp+EyXGY5a8pvx\njrR+MDyagRpXGbNLprVTQNsObJWW2TVv+r4Dweo9KwYeR9oV/6aXhDh2HWj1rRy0\nCTmV9ENV1i+7xYtJxWlFHMIXxqnpE/DjuN2daPL+j1CfZFpOUl9GF8dz9/ztqNSi\n/VwqzBTxuPYrMImYtMV384uVM+FMyorH/pqp0DPjSnaDXBo8GBWdecc0wSoz68mk\nCnJVG7S8hQMb5r+hkN3Jm/ExWxV7ZX1sqgw35chJLTh51DeWRU7a6ZTWyy+5a6ba\nDPSbKvWvAgMBAAECggEAMoOFJoNh4M/Dp4OZNSqDup1ADtM09wX51DEZCo3v2RE0\nv+ivc6vTcLb/6T0RjKOlhZcEJxZqTM8y46sauvCIc5qaE7SI5HxCqnEUCNyKyKxB\nuymsYBeIredQg//p/qMGOxS0zaM/Js7R1xC1mPv3MyU8dw8Lpedyeravb+epyED3\nXmaPkYbmBzzIa613XUCPvF3LDh4pvg5If8Ap10D8KuiM3v+vRXNplxO90EYE/sgu\napgLNxGW6Tv3c9CRk8iW0WUdJOY3T+Bd5p7YFiDSM5jzJbgIcV5qDDRwCLoAfUFK\nt9AlAcRZUSw5TfS+HW24WlGiLhnAvPqIRI6F3KwTAQKBgQDb9vbIUeVKJCGnbWtm\nAQah+BaaeTqFXpdswG6OX5/0j4fNI6fMhL1y3crBFg6Jm5IOCZJjqH296198FRzz\nMD2dsnrZ7kv+96QrOres0TFAHlVPwirnI3xam8L7Y/hf1okaFkjt9xVgZj3oguGR\navMnXSqWU3t6cg4ZxQD323l7GQKBgQDBulODK4Ie43RBfeS7UiL/3f9uuzAU9LSk\ndeiumWX0kYAlbllkPvnOc3l2Ncbytpyd3dm1D1455Y0N/8CgtW2WrrQvQeIqvsFd\npvH9eHlHqcg5pjRaH0DZ9GfwsKD+qfyevaDMdxC5/aMuQ2G1Yb8Hdwbqvq2jRjDK\nrIqDtchYBwKBgEA10IZbeb5x260fQNmu9Pu1Cwwe1Vl3amahqeQ/v9bJS1Az11jZ\nauAsJHLG+Ils827LloMm/UXCfsYe96t56pKtNjWF3YNZUQAZjOKS0niwIiE9Qf7l\nGfjtPTbbUPbRDoah+LoWhZP1ZJ8KDcTAXqigBr2JMyNkRf95xbWUyNqJAoGAVOWC\nk4kNjNvAprK0+iIUlGyE89G0UHqsbyX8wgcXVwYsUjr5kaTHdGHGaLdIaDT+jXAb\nZ+1ELbsbBXd+wu6/B7mn3M3Sf0j5FEGE6r9Q5sbQp/LeHmBz2w/wPNoqs29q9WXE\ngdXrzpYIXM3Kk+IyBON0dIr7LQIlf6v9R5ryISECgYEAj0KMy5pwdve+7FI96jab\nEAmW10/6C7QuxO7yhzql+fKkaJ0UX2H5m5+FkiDlOhFt40Vz8zUP8QsALCYDDU2L\nj/AscyYVE6CxTOdzxaxAiS28dFMroNW+alXRy7icr5wCilOE1q2kfUsJrv5rACRR\n2nE3ayoiRCXLCV6R2/Gkv/s=\n-----END PRIVATE KEY-----\n",
  "client_email": "fir-vuechat5@appspot.gserviceaccount.com",
  "client_id": "111793303494246008604",
  "auth_uri": "https://accounts.google.com/o/oauth2/auth",
  "token_uri": "https://oauth2.googleapis.com/token",
  "auth_provider_x509_cert_url": "https://www.googleapis.com/oauth2/v1/certs",
  "client_x509_cert_url": "https://www.googleapis.com/robot/v1/metadata/x509/fir-vuechat5%40appspot.gserviceaccount.com"
}
